…
Probemos `read_excel()`.

```r
iris_excel <- read_excel(path = "datos/data_frames.xlsx", sheet = "iris")
```

Nuestro resultado es un data frame.

```r
iris_excel
```

```
## # A tibble: 150 x 5
##    Sepal.Length Sepal.Width Petal.Length Petal.Width Species
##           <dbl>       <dbl>        <dbl>       <dbl> <chr>  
##  1          5.1         3.5          1.4         0.2 setosa 
##  2          4.9         3            1.4         0.2 setosa 
##  3          4.7         3.2          1.3         0.2 setosa 
##  4          4.6         3.1          1.5         0.2 setosa 
##  5          5           3.6          1.4         0.2 setosa 
##  6          5.4         3.9          1.7         0.4 setosa 
##  7          4.6         3.4          1.4         0.3 setosa 
##  8          5           3.4          1.5         0.2 setosa 
##  9          4.4         2.9          1.4         0.2 setosa 
## 10          4.9         3.1          1.5         0.1 setosa 
## # ... with 140 more rows
```
…
```r
# Resultado
trees_excel
```

```
## # A tibble: 34 x 6
##    `Datos trees`  ...2  ...3  ...4 ...5  ...6                                   
##    <chr>         <dbl> <dbl> <dbl> <lgl> <chr>                                  
##  1 <NA>           NA      NA  NA   NA    <NA>                                   
##  2 <NA>            8.3    70  10.3 NA    <NA>                                   
##  3 <NA>            8.6    65  10.3 NA    <NA>                                   
##  4 <NA>            8.8    63  10.2 NA    Los nombres de las variables son: Girt~
##  5 <NA>           10.5    72  16.4 NA    <NA>                                   
##  6 <NA>           10.7    81  18.8 NA    <NA>                                   
##  7 <NA>           10.8    83  19.7 NA    <NA>                                   
##  8 <NA>           11      66  15.6 NA    <NA>                                   
##  9 <NA>           11      75  18.2 NA    <NA>                                   
## 10 <NA>           11.1    80  22.6 NA    <NA>                                   
## # ... with 24 more rows
```
…
Ajustamos los argumentos de `read_excel()` para leer correctamente la información de la pestaña. Al explorar manualmente el archivo **data.frames.xlsx**, podemos localizar el rango en el que se encuentran los datos (de las celdas B3 a D33) y los nombres de las columnas (Girth, Height y Volume).

Probemos importar de nuevo con esta información.

```r
trees_excel <- read_excel(path = "datos/data_frames.xlsx", sheet = "trees", 
                          range = "B3:D33", 
                          col_names = c("Girth", "Height", "Volume"))

# Resultado
trees_excel
```

```
## # A tibble: 31 x 3
##    Girth Height Volume
##    <dbl>  <dbl>  <dbl>
##  1   8.3     70   10.3
##  2   8.6     65   10.3
##  3   8.8     63   10.2
##  4  10.5     72   16.4
##  5  10.7     81   18.8
##  6  10.8     83   19.7
##  7  11       66   15.6
##  8  11       75   18.2
##  9  11.1     80   22.6
## 10  11.2     75   19.9
## # ... with 21 more rows
```
…
